<svg width="24" height="14" viewBox="0 0 24 14" fill="none" xmlns="http://www.w3.org/2000/svg">
<path d="M15.5 6.99999V12.1333C15.5 12.2252 15.4819 12.3163 15.4467 12.4012C15.4115 12.4861 15.36 12.5633 15.295 12.6283C15.23 12.6933 15.1528 12.7449 15.0679 12.78C14.983 12.8152 14.8919 12.8333 14.8 12.8333H2.2C2.10807 12.8333 2.01705 12.8152 1.93212 12.78C1.84719 12.7449 1.77003 12.6933 1.70503 12.6283C1.64002 12.5633 1.58846 12.4861 1.55328 12.4012C1.51811 12.3163 1.5 12.2252 1.5 12.1333V1.86666C1.5 1.681 1.57375 1.50296 1.70503 1.37168C1.8363 1.24041 2.01435 1.16666 2.2 1.16666H14.8C14.9857 1.16666 15.1637 1.24041 15.295 1.37168C15.4263 1.50296 15.5 1.681 15.5 1.86666V6.99999ZM15.5 6.99999L21.352 2.12332C21.4542 2.03818 21.5786 1.98393 21.7105 1.96693C21.8425 1.94992 21.9765 1.97087 22.097 2.0273C22.2174 2.08374 22.3193 2.17334 22.3907 2.28559C22.4621 2.39785 22.5 2.52813 22.5 2.66116V11.3388C22.4998 11.4718 22.4617 11.6019 22.3902 11.714C22.3188 11.826 22.2169 11.9155 22.0964 11.9718C21.976 12.0281 21.8421 12.0489 21.7102 12.0318C21.5784 12.0148 21.4541 11.9606 21.352 11.8755L15.5 6.99999Z" stroke="#4437C1" stroke-width="1.625" stroke-linecap="round" stroke-linejoin="round"/>
</svg>
