{
  "api_base_url": "https://www.didayz.com/api",
  "api_key": "d5fa5e30eddc4cbf9b48cf1ab63d59c4",
  "spotify_client_id": "b0f861f3e2d7461bb079090917c15508",
  "spotify_client_secret": "226d8803d78449d7ad83d7345c23dedd"
}
